analysis3_part2
…
Modeling Using the Workflow

Using the workflow above, lets not fit the model to the train data set (Recipe_Nausea).

#Defining a command that runs model fitting to Recipe_Nausea
Nausea_fit <- 
  Nausea_glm_wflow %>% 
  fit(data = train_data)

#Pull log reg fit model using parsnip()
Nausea_fit %>% 
  extract_fit_parsnip() %>% 
  tidy()

## # A tibble: 38 x 5
##    term                 estimate std.error statistic p.value
##    <chr>                   <dbl>     <dbl>     <dbl>   <dbl>
##  1 (Intercept)           -3.87       9.14     -0.424  0.672 
##  2 SwollenLymphNodesYes  -0.314      0.226    -1.39   0.164 
##  3 ChestCongestionYes     0.347      0.245     1.42   0.157 
##  4 ChillsSweatsYes        0.562      0.337     1.67   0.0951
##  5 NasalCongestionYes     0.197      0.301     0.653  0.514 
##  6 CoughYNYes            -0.118      0.595    -0.199  0.842 
##  7 SneezeYes              0.383      0.245     1.56   0.119 
##  8 FatigueYes             0.200      0.410     0.487  0.626 
##  9 SubjectiveFeverYes     0.0778     0.257     0.302  0.762 
## 10 HeadacheYes            0.268      0.324     0.828  0.408 
## # ... with 28 more rows

Using Workflows to Make Predictions

Now that we have our modeling workflow, we are going to use the fitted model to predict values in the test data set.

#predict values in test data
predict(Nausea_fit, test_data)

## Warning in predict.lm(object, newdata, se.fit, scale = 1, type = if (type == :
## prediction from a rank-deficient fit may be misleading

## # A tibble: 183 x 1
##    .pred_class
##    <fct>      
##  1 Yes        
##  2 No         
##  3 No         
##  4 No         
##  5 No         
##  6 No         
##  7 No         
##  8 Yes        
##  9 No         
## 10 No         
## # ... with 173 more rows
…
## # A tibble: 2 x 5
##   term         estimate std.error statistic  p.value
##   <chr>           <dbl>     <dbl>     <dbl>    <dbl>
## 1 (Intercept)  -0.603       0.163   -3.69   0.000223
## 2 RunnyNoseYes  0.00626     0.195    0.0321 0.974

Using Workflows to Make Predictions

Use the fitted model to predict values in the test data set.

#predict values in test data
predict(Nausea_RN_fit, test_data)

## # A tibble: 183 x 1
##    .pred_class
##    <fct>      
##  1 No         
##  2 No         
##  3 No         
##  4 No         
##  5 No         
##  6 No         
##  7 No         
##  8 No         
##  9 No         
## 10 No         
## # ... with 173 more rows
…
Use workflow to fit the model to the train data set

BodyTemp_fit <- 
  BodyTemp.wflow %>% 
  fit(data = train_data)

To view a tibble

BodyTemp_fit %>%
  extract_fit_parsnip() %>%
  tidy()

## # A tibble: 38 x 5
##    term                  estimate std.error statistic  p.value
##    <chr>                    <dbl>     <dbl>     <dbl>    <dbl>
##  1 (Intercept)          97.9          0.357 275.      0       
##  2 SwollenLymphNodesYes -0.185        0.105  -1.77    0.0777  
##  3 ChestCongestionYes   -0.000611     0.112  -0.00545 0.996   
##  4 ChillsSweatsYes       0.213        0.144   1.48    0.139   
##  5 NasalCongestionYes   -0.302        0.134  -2.26    0.0245  
##  6 CoughYNYes            0.556        0.281   1.98    0.0487  
##  7 SneezeYes            -0.317        0.114  -2.79    0.00539 
##  8 FatigueYes            0.359        0.180   2.00    0.0463  
##  9 SubjectiveFeverYes    0.413        0.117   3.52    0.000470
## 10 HeadacheYes          -0.0254       0.143  -0.178   0.859   
## # ... with 28 more rows

Using Workflows to Make Predictions_

predict values in test data

predict(BodyTemp_fit, test_data)

## Warning in predict.lm(object = object$fit, newdata = new_data, type =
## "response"): prediction from a rank-deficient fit may be misleading

## # A tibble: 183 x 1
##    .pred
##    <dbl>
##  1  98.5
##  2  99.9
##  3  99.1
##  4  99.2
##  5  99.2
##  6  99.1
##  7  98.7
##  8  99.1
##  9  99.0
## 10  99.0
## # ... with 173 more rows

Using augment() function to predict outcomes in the test data.

BodyTemp.aug <- 
  augment(BodyTemp_fit, test_data)

## Warning in predict.lm(object = object$fit, newdata = new_data, type =
## "response"): prediction from a rank-deficient fit may be misleading

# The data look like:

BodyTemp.aug %>%
  select(BodyTemp, .pred)

## # A tibble: 183 x 2
##    BodyTemp .pred
##       <dbl> <dbl>
##  1    101.   98.5
##  2    102.   99.9
##  3     99.3  99.1
##  4     97.8  99.2
##  5     98.4  99.2
##  6    100.   99.1
##  7    101.   98.7
##  8    100.   99.1
##  9     99.3  99.0
## 10     98.5  99.0
## # ... with 173 more rows
…
Using Workflows to Make Predictions

predict values in test data

predict(BT_RN_fit, test_data)

## # A tibble: 183 x 1
##    .pred
##    <dbl>
##  1  98.9
##  2  98.9
##  3  99.0
##  4  99.0
##  5  98.9
##  6  98.9
##  7  99.0
##  8  99.0
##  9  98.9
## 10  98.9
## # ... with 173 more rows

Using augment() function to predict outcomes in the test data.

BT_RN_aug <- 
  augment(BT_RN_fit, test_data)
  
# The data look like:

BT_RN_aug %>%
  select(BodyTemp, .pred)

## # A tibble: 183 x 2
##    BodyTemp .pred
##       <dbl> <dbl>
##  1    101.   98.9
##  2    102.   98.9
##  3     99.3  99.0
##  4     97.8  99.0
##  5     98.4  98.9
##  6    100.   98.9
##  7    101.   99.0
##  8    100.   99.0
##  9     99.3  98.9
## 10     98.5  98.9
## # ... with 173 more rows
…
Tune Grid Specification: Decision Tree

#create a regular grid of values for using convenience functions for each hyperparameter.
tree_grid_dtree <-
  dials::grid_regular(
    cost_complexity(), 
    tree_depth(), 
    levels = 5)

tree_grid_dtree

## # A tibble: 25 x 2
##    cost_complexity tree_depth
##              <dbl>      <int>
##  1    0.0000000001          1
##  2    0.0000000178          1
##  3    0.00000316            1
##  4    0.000562              1
##  5    0.1                   1
##  6    0.0000000001          4
##  7    0.0000000178          4
##  8    0.00000316            4
##  9    0.000562              4
## 10    0.1                   4
## # ... with 15 more rows
…
## ! Fold4, Repeat5: internal: A correlation computation is required, but `estimate` is const...

## ! Fold5, Repeat5: internal: A correlation computation is required, but `estimate` is const...

dtree_resample

## Warning: This tuning result has notes. Example notes on model fitting include:
## internal: A correlation computation is required, but `estimate` is constant and has 0 standard deviation, resulting in a divide by 0 error. `NA` will be returned.
## internal: A correlation computation is required, but `estimate` is constant and has 0 standard deviation, resulting in a divide by 0 error. `NA` will be returned.
## internal: A correlation computation is required, but `estimate` is constant and has 0 standard deviation, resulting in a divide by 0 error. `NA` will be returned.

## # Tuning results
## # 5-fold cross-validation repeated 5 times using stratification 
## # A tibble: 25 x 5
##    splits            id      id2   .metrics          .notes          
##    <list>            <chr>   <chr> <list>            <list>          
##  1 <split [405/103]> Repeat1 Fold1 <tibble [50 x 6]> <tibble [1 x 1]>
##  2 <split [405/103]> Repeat1 Fold2 <tibble [50 x 6]> <tibble [1 x 1]>
##  3 <split [406/102]> Repeat1 Fold3 <tibble [50 x 6]> <tibble [1 x 1]>
##  4 <split [408/100]> Repeat1 Fold4 <tibble [50 x 6]> <tibble [1 x 1]>
##  5 <split [408/100]> Repeat1 Fold5 <tibble [50 x 6]> <tibble [1 x 1]>
##  6 <split [405/103]> Repeat2 Fold1 <tibble [50 x 6]> <tibble [1 x 1]>
##  7 <split [405/103]> Repeat2 Fold2 <tibble [50 x 6]> <tibble [1 x 1]>
##  8 <split [406/102]> Repeat2 Fold3 <tibble [50 x 6]> <tibble [1 x 1]>
##  9 <split [408/100]> Repeat2 Fold4 <tibble [50 x 6]> <tibble [1 x 1]>
## 10 <split [408/100]> Repeat2 Fold5 <tibble [50 x 6]> <tibble [1 x 1]>
## # ... with 15 more rows

dtree_resample %>%
  collect_metrics()

## # A tibble: 50 x 8
##    cost_complexity tree_depth .metric .estimator     mean     n  std_err .config
##              <dbl>      <int> <chr>   <chr>         <dbl> <int>    <dbl> <chr>  
##  1    0.0000000001          1 rmse    standard     1.19      25  0.0181  Prepro~
##  2    0.0000000001          1 rsq     standard     0.0361    25  0.00422 Prepro~
##  3    0.0000000178          1 rmse    standard     1.19      25  0.0181  Prepro~
##  4    0.0000000178          1 rsq     standard     0.0361    25  0.00422 Prepro~
##  5    0.00000316            1 rmse    standard     1.19      25  0.0181  Prepro~
##  6    0.00000316            1 rsq     standard     0.0361    25  0.00422 Prepro~
##  7    0.000562              1 rmse    standard     1.19      25  0.0181  Prepro~
##  8    0.000562              1 rsq     standard     0.0361    25  0.00422 Prepro~
##  9    0.1                   1 rmse    standard     1.21      25  0.0177  Prepro~
## 10    0.1                   1 rsq     standard   NaN          0 NA       Prepro~
## # ... with 40 more rows
…
Calculating residuals and ploting Actual vs. Predicted values

 Calculating residuals: In the Tidymodels tutorial used to do this exercise, I could not get the built in functions to cooperate (looking at you autoplot()). This is because autoplot() cannot use the output of any predict functions. Therefore, below is how we do it manually.

dtree_residuals <- dtree_final_fit %>%
  augment(train_data2) %>% #use augment() to make predictions from train data
  select(c(.pred, BodyTemp)) %>%
  mutate(.resid = BodyTemp - .pred) #calculate residuals and make new row.

dtree_residuals

## # A tibble: 508 x 3
##    .pred BodyTemp .resid
##    <dbl>    <dbl>  <dbl>
##  1  99.2     97.8 -1.44 
##  2  99.2     98.1 -1.14 
##  3  98.7     98.1 -0.591
##  4  98.7     98.2 -0.491
##  5  98.7     97.8 -0.891
##  6  98.7     98.2 -0.491
##  7  98.7     98.1 -0.591
##  8  99.2     98   -1.24 
##  9  99.2     97.7 -1.54 
## 10  99.2     98.2 -1.04 
## # ... with 498 more rows
…
lasso_grid <- tibble(penalty = 10^seq(-3, 0, length.out = 30))

Cross Validation with tune_grid(): LASSO

lasso_resample <- 
  lasso_wf %>%
  tune_grid(resamples = fold_BT,
            grid = lasso_grid,
            control = control_grid(verbose = FALSE, save_pred = TRUE),
            metrics = metric_set(rmse))

lasso_resample %>%
  collect_metrics()

## # A tibble: 30 x 7
##    penalty .metric .estimator  mean     n std_err .config              
##      <dbl> <chr>   <chr>      <dbl> <int>   <dbl> <chr>                
##  1 0.001   rmse    standard    1.18    25  0.0163 Preprocessor1_Model01
##  2 0.00127 rmse    standard    1.18    25  0.0163 Preprocessor1_Model02
##  3 0.00161 rmse    standard    1.18    25  0.0163 Preprocessor1_Model03
##  4 0.00204 rmse    standard    1.18    25  0.0163 Preprocessor1_Model04
##  5 0.00259 rmse    standard    1.17    25  0.0163 Preprocessor1_Model05
##  6 0.00329 rmse    standard    1.17    25  0.0163 Preprocessor1_Model06
##  7 0.00418 rmse    standard    1.17    25  0.0163 Preprocessor1_Model07
##  8 0.00530 rmse    standard    1.17    25  0.0164 Preprocessor1_Model08
##  9 0.00672 rmse    standard    1.17    25  0.0164 Preprocessor1_Model09
## 10 0.00853 rmse    standard    1.17    25  0.0164 Preprocessor1_Model10
## # ... with 20 more rows
…
#Create workflow for fitting model to train_data2 predictions
lasso_final_fit <- 
  lasso_final_wf %>%
  fit(train_data2) 

Calculating residuals: In the Tidymodels tutorial used to do this exercise, I could not get the built in functions to cooperate (looking at you autoplot()). This is because autoplot() cannot use the output of any predict functions. Therefore, below is how we do it manually.

lasso_residuals <- lasso_final_fit %>%
  augment(train_data2) %>% #use augment() to make predictions from train data
  select(c(.pred, BodyTemp)) %>%
  mutate(.resid = BodyTemp - .pred) #calculate residuals and make new row.

lasso_residuals

## # A tibble: 508 x 3
##    .pred BodyTemp .resid
##    <dbl>    <dbl>  <dbl>
##  1  98.7     97.8 -0.916
##  2  98.8     98.1 -0.675
##  3  98.5     98.1 -0.354
##  4  98.9     98.2 -0.673
##  5  98.7     97.8 -0.941
##  6  98.7     98.2 -0.489
##  7  98.3     98.1 -0.210
##  8  99.3     98   -1.25 
##  9  98.9     97.7 -1.19 
## 10  98.9     98.2 -0.749
## # ... with 498 more rows
…
Cross Validation with tune_grid(): Random Forest

rf_resample <- 
  rf_wf %>% 
  tune_grid(fold_BT,
            grid = 25,
            control = control_grid(save_pred = TRUE),
            metrics = metric_set(rmse))

## i Creating pre-processing data to finalize unknown parameter: mtry

rf_resample %>%
  collect_metrics()

## # A tibble: 25 x 8
##     mtry min_n .metric .estimator  mean     n std_err .config              
##    <int> <int> <chr>   <chr>      <dbl> <int>   <dbl> <chr>                
##  1    20    10 rmse    standard    1.20    25  0.0161 Preprocessor1_Model01
##  2    29    39 rmse    standard    1.18    25  0.0166 Preprocessor1_Model02
##  3    22    27 rmse    standard    1.18    25  0.0164 Preprocessor1_Model03
##  4    25    23 rmse    standard    1.19    25  0.0165 Preprocessor1_Model04
##  5    27    25 rmse    standard    1.19    25  0.0164 Preprocessor1_Model05
##  6     2    30 rmse    standard    1.17    25  0.0170 Preprocessor1_Model06
##  7    13    37 rmse    standard    1.17    25  0.0163 Preprocessor1_Model07
##  8    18    12 rmse    standard    1.19    25  0.0164 Preprocessor1_Model08
##  9    31    15 rmse    standard    1.20    25  0.0164 Preprocessor1_Model09
## 10    14    18 rmse    standard    1.18    25  0.0162 Preprocessor1_Model10
## # ... with 15 more rows
…
#Create workflow for fitting model to train_data2 predictions
rf_final_fit <- 
  rf_final_wf %>%
  fit(train_data2) 

Calculating residuals: In the Tidymodels tutorial used to do this exercise, I could not get the built in functions to cooperate (looking at you autoplot()). This is because autoplot() cannot use the output of any predict functions. Therefore, below is how we do it manually.

rf_residuals <- rf_final_fit %>%
  augment(train_data2) %>% #use augment() to make predictions from train data
  select(c(.pred, BodyTemp)) %>%
  mutate(.resid = BodyTemp - .pred) #calculate residuals and make new row.

rf_residuals

## # A tibble: 508 x 3
##    .pred BodyTemp .resid
##    <dbl>    <dbl>  <dbl>
##  1  98.7     97.8 -0.942
##  2  98.6     98.1 -0.494
##  3  98.7     98.1 -0.580
##  4  98.8     98.2 -0.579
##  5  98.8     97.8 -1.03 
##  6  98.6     98.2 -0.442
##  7  98.4     98.1 -0.313
##  8  99.1     98   -1.06 
##  9  98.8     97.7 -1.07 
## 10  98.9     98.2 -0.654
## # ... with 498 more rows
…
