Tidy Tuesday Exercise 2
…
Tune Grid Specification: Decision Tree

#create a regular grid of values for using convenience functions for each hyperparameter.
tree_grid_dtree <-
  dials::grid_regular(
    cost_complexity(), 
    tree_depth(), 
    levels = 5)

tree_grid_dtree

## # A tibble: 25 x 2
##    cost_complexity tree_depth
##              <dbl>      <int>
##  1    0.0000000001          1
##  2    0.0000000178          1
##  3    0.00000316            1
##  4    0.000562              1
##  5    0.1                   1
##  6    0.0000000001          4
##  7    0.0000000178          4
##  8    0.00000316            4
##  9    0.000562              4
## 10    0.1                   4
## # ... with 15 more rows
…
Cross Validation with tunegrid(): Decision Tree

dtree_resample <- 
  dtree_wf %>% 
  tune_grid(
    resamples = fold,
    grid = tree_grid_dtree
    )

dtree_resample %>%
  collect_metrics()

## # A tibble: 50 x 8
##    cost_complexity tree_depth .metric .estimator  mean     n std_err .config    
##              <dbl>      <int> <chr>   <chr>      <dbl> <int>   <dbl> <chr>      
##  1    0.0000000001          1 rmse    standard   4.24     25  0.0601 Preprocess~
##  2    0.0000000001          1 rsq     standard   0.431    25  0.0105 Preprocess~
##  3    0.0000000178          1 rmse    standard   4.24     25  0.0601 Preprocess~
##  4    0.0000000178          1 rsq     standard   0.431    25  0.0105 Preprocess~
##  5    0.00000316            1 rmse    standard   4.24     25  0.0601 Preprocess~
##  6    0.00000316            1 rsq     standard   0.431    25  0.0105 Preprocess~
##  7    0.000562              1 rmse    standard   4.24     25  0.0601 Preprocess~
##  8    0.000562              1 rsq     standard   0.431    25  0.0105 Preprocess~
##  9    0.1                   1 rmse    standard   4.24     25  0.0601 Preprocess~
## 10    0.1                   1 rsq     standard   0.431    25  0.0105 Preprocess~
## # ... with 40 more rows
…
Calculating residuals and ploting Actual vs. Predicted values

Calculating residuals manually.

dtree_residuals <- dtree_final_fit %>%
  augment(train_data) %>% #use augment() to make predictions from train data
  select(c(.pred, avg_time_lap)) %>%
  mutate(.resid = avg_time_lap - .pred) #calculate residuals and make new row.

dtree_residuals

## # A tibble: 189 x 3
##    .pred avg_time_lap   .resid
##    <dbl>        <dbl>    <dbl>
##  1  30.1         30.1 -0.00727
##  2  26.8         29.6  2.80   
##  3  33.2         33.1 -0.154  
##  4  22.0         22.2  0.154  
##  5  35.4         34.8 -0.666  
##  6  29.7         31.0  1.30   
##  7  23.8         23.9  0.113  
##  8  26.7         26.4 -0.308  
##  9  32.4         33.8  1.43   
## 10  36.3         36.4  0.0600 
## # ... with 179 more rows
…
lasso_grid <- tibble(penalty = 10^seq(-3, 0, length.out = 30))

Cross Validation with tune_grid(): LASSO

lasso_resample <- 
  lasso_wf %>%
  tune_grid(resamples = fold,
            grid = lasso_grid,
            control = control_grid(verbose = FALSE, save_pred = TRUE),
            metrics = metric_set(rmse))

lasso_resample %>%
  collect_metrics()

## # A tibble: 30 x 7
##    penalty .metric .estimator  mean     n std_err .config              
##      <dbl> <chr>   <chr>      <dbl> <int>   <dbl> <chr>                
##  1 0.001   rmse    standard    1.10    25  0.0195 Preprocessor1_Model01
##  2 0.00127 rmse    standard    1.10    25  0.0195 Preprocessor1_Model02
##  3 0.00161 rmse    standard    1.10    25  0.0195 Preprocessor1_Model03
##  4 0.00204 rmse    standard    1.10    25  0.0195 Preprocessor1_Model04
##  5 0.00259 rmse    standard    1.10    25  0.0195 Preprocessor1_Model05
##  6 0.00329 rmse    standard    1.10    25  0.0196 Preprocessor1_Model06
##  7 0.00418 rmse    standard    1.09    25  0.0196 Preprocessor1_Model07
##  8 0.00530 rmse    standard    1.09    25  0.0196 Preprocessor1_Model08
##  9 0.00672 rmse    standard    1.09    25  0.0196 Preprocessor1_Model09
## 10 0.00853 rmse    standard    1.09    25  0.0197 Preprocessor1_Model10
## # ... with 20 more rows
…
#Create workflow for fitting model to train_data2 predictions
lasso_final_fit <- 
  lasso_final_wf %>%
  fit(train_data) 

Calculating residuals manually.

lasso_residuals <- lasso_final_fit %>%
  augment(train_data) %>% #use augment() to make predictions from train data
  select(c(.pred, avg_time_lap)) %>%
  mutate(.resid = avg_time_lap - .pred) #calculate residuals and make new row.

lasso_residuals

## # A tibble: 189 x 3
##    .pred avg_time_lap .resid
##    <dbl>        <dbl>  <dbl>
##  1  30.9         30.1 -0.796
##  2  27.3         29.6  2.32 
##  3  32.9         33.1  0.152
##  4  21.9         22.2  0.291
##  5  35.8         34.8 -1.07 
##  6  31.6         31.0 -0.650
##  7  24.0         23.9 -0.140
##  8  26.5         26.4 -0.175
##  9  33.1         33.8  0.715
## 10  36.0         36.4  0.370
## # ... with 179 more rows
…
Cross Validation with tune_grid(): Random Forest

rf_resample <- 
  rf_wf %>% 
  tune_grid(fold,
            grid = 25,
            control = control_grid(save_pred = TRUE),
            metrics = metric_set(rmse))

## i Creating pre-processing data to finalize unknown parameter: mtry

rf_resample %>%
  collect_metrics()

## # A tibble: 25 x 8
##     mtry min_n .metric .estimator  mean     n std_err .config              
##    <int> <int> <chr>   <chr>      <dbl> <int>   <dbl> <chr>                
##  1    39     4 rmse    standard   0.920    25  0.0363 Preprocessor1_Model01
##  2     8    17 rmse    standard   1.79     25  0.0402 Preprocessor1_Model02
##  3    22    15 rmse    standard   1.12     25  0.0216 Preprocessor1_Model03
##  4     2    13 rmse    standard   3.84     25  0.0779 Preprocessor1_Model04
##  5     5    32 rmse    standard   2.54     25  0.0576 Preprocessor1_Model05
##  6    12    40 rmse    standard   1.94     25  0.0453 Preprocessor1_Model06
##  7    37    25 rmse    standard   1.38     25  0.0215 Preprocessor1_Model07
##  8    52    13 rmse    standard   0.937    25  0.0360 Preprocessor1_Model08
##  9    49    35 rmse    standard   1.80     25  0.0278 Preprocessor1_Model09
## 10    10    10 rmse    standard   1.43     25  0.0308 Preprocessor1_Model10
## # ... with 15 more rows
…
#Create workflow for fitting model to train_data predictions
rf_final_fit <- 
  rf_final_wf %>%
  fit(train_data) 

Calculating residuals manually.

rf_residuals <- rf_final_fit %>%
  augment(train_data) %>% #use augment() to make predictions from train data
  select(c(.pred, avg_time_lap)) %>%
  mutate(.resid = avg_time_lap - .pred) #calculate residuals and make new row.

rf_residuals

## # A tibble: 189 x 3
##    .pred avg_time_lap   .resid
##    <dbl>        <dbl>    <dbl>
##  1  30.1         30.1  0.00264
##  2  28.4         29.6  1.24   
##  3  33.2         33.1 -0.101  
##  4  22.1         22.2  0.0948 
##  5  35.1         34.8 -0.354  
##  6  31.0         31.0  0.0205 
##  7  23.9         23.9 -0.00944
##  8  26.5         26.4 -0.101  
##  9  33.1         33.8  0.683  
## 10  36.3         36.4  0.0533 
## # ... with 179 more rows
…
#random forest
rf_resample2 <- 
  rf_wf %>% 
  tune_grid(fold,
            grid = 25,
            control = control_stack_grid(),
            metrics = metric_set(rmse))

## i Creating pre-processing data to finalize unknown parameter: mtry

rf_resample2 %>%
  collect_metrics()

## # A tibble: 25 x 8
##     mtry min_n .metric .estimator  mean     n std_err .config              
##    <int> <int> <chr>   <chr>      <dbl> <int>   <dbl> <chr>                
##  1    47    39 rmse    standard   1.91     25  0.0297 Preprocessor1_Model01
##  2    17    17 rmse    standard   1.28     25  0.0231 Preprocessor1_Model02
##  3    46     8 rmse    standard   0.912    25  0.0380 Preprocessor1_Model03
##  4    53    30 rmse    standard   1.66     25  0.0238 Preprocessor1_Model04
##  5    29    23 rmse    standard   1.33     25  0.0220 Preprocessor1_Model05
##  6    26    33 rmse    standard   1.59     25  0.0297 Preprocessor1_Model06
##  7    41    25 rmse    standard   1.38     25  0.0200 Preprocessor1_Model07
##  8    14     5 rmse    standard   1.12     25  0.0271 Preprocessor1_Model08
##  9    21     9 rmse    standard   0.991    25  0.0278 Preprocessor1_Model09
## 10    10    36 rmse    standard   1.97     25  0.0464 Preprocessor1_Model10
## # ... with 15 more rows

#LASSO
lasso_resample2 <- 
  lasso_wf %>%
  tune_grid(resamples = fold,
            grid = lasso_grid,
            control = control_stack_grid(),
            metrics = metric_set(rmse))

lasso_resample2 %>%
  collect_metrics()

## # A tibble: 30 x 7
##    penalty .metric .estimator  mean     n std_err .config              
##      <dbl> <chr>   <chr>      <dbl> <int>   <dbl> <chr>                
##  1 0.001   rmse    standard    1.10    25  0.0195 Preprocessor1_Model01
##  2 0.00127 rmse    standard    1.10    25  0.0195 Preprocessor1_Model02
##  3 0.00161 rmse    standard    1.10    25  0.0195 Preprocessor1_Model03
##  4 0.00204 rmse    standard    1.10    25  0.0195 Preprocessor1_Model04
##  5 0.00259 rmse    standard    1.10    25  0.0195 Preprocessor1_Model05
##  6 0.00329 rmse    standard    1.10    25  0.0196 Preprocessor1_Model06
##  7 0.00418 rmse    standard    1.09    25  0.0196 Preprocessor1_Model07
##  8 0.00530 rmse    standard    1.09    25  0.0196 Preprocessor1_Model08
##  9 0.00672 rmse    standard    1.09    25  0.0196 Preprocessor1_Model09
## 10 0.00853 rmse    standard    1.09    25  0.0197 Preprocessor1_Model10
## # ... with 20 more rows
…
## 
## The 3 highest weighted members are:

## # A tibble: 3 x 3
##   member               type        weight
##   <chr>                <chr>        <dbl>
## 1 rf_resample2_1_03    rand_forest 0.663 
## 2 lasso_resample2_1_01 linear_reg  0.253 
## 3 rf_resample2_1_17    rand_forest 0.0935

#using collect_parameters function to see which individual model was used to assign which stacking coefficient.
collect_parameters(ensemble_mod, "lasso_resample2")

## # A tibble: 30 x 3
##    member               penalty   coef
##    <chr>                  <dbl>  <dbl>
##  1 lasso_resample2_1_01 0.001    0.253
##  2 lasso_resample2_1_02 0.00127 NA    
##  3 lasso_resample2_1_03 0.00161  0    
##  4 lasso_resample2_1_04 0.00204  0    
##  5 lasso_resample2_1_05 0.00259  0    
##  6 lasso_resample2_1_06 0.00329  0    
##  7 lasso_resample2_1_07 0.00418  0    
##  8 lasso_resample2_1_08 0.00530  0    
##  9 lasso_resample2_1_09 0.00672  0    
## 10 lasso_resample2_1_10 0.00853  0    
## # ... with 20 more rows

collect_parameters(ensemble_mod, "rf_resample2")

## # A tibble: 25 x 4
##    member             mtry min_n  coef
##    <chr>             <int> <int> <dbl>
##  1 rf_resample2_1_01    47    39 0    
##  2 rf_resample2_1_02    17    17 0    
##  3 rf_resample2_1_03    46     8 0.663
##  4 rf_resample2_1_04    53    30 0    
##  5 rf_resample2_1_05    29    23 0    
##  6 rf_resample2_1_06    26    33 0    
##  7 rf_resample2_1_07    41    25 0    
##  8 rf_resample2_1_08    14     5 0    
##  9 rf_resample2_1_09    21     9 0    
## 10 rf_resample2_1_10    10    36 0    
## # ... with 15 more rows
…
lasso_grid <- tibble(penalty = 10^seq(-3, 0, length.out = 30))

Cross Validation with tune_grid(): LASSO

lasso_resample2 <- 
  lasso_wf2 %>%
  tune_grid(resamples = fold,
            grid = lasso_grid,
            control = control_grid(verbose = FALSE, save_pred = TRUE),
            metrics = metric_set(rmse))

lasso_resample2 %>%
  collect_metrics()

## # A tibble: 30 x 7
##    penalty .metric .estimator  mean     n std_err .config              
##      <dbl> <chr>   <chr>      <dbl> <int>   <dbl> <chr>                
##  1 0.001   rmse    standard    1.10    25  0.0195 Preprocessor1_Model01
##  2 0.00127 rmse    standard    1.10    25  0.0195 Preprocessor1_Model02
##  3 0.00161 rmse    standard    1.10    25  0.0195 Preprocessor1_Model03
##  4 0.00204 rmse    standard    1.10    25  0.0195 Preprocessor1_Model04
##  5 0.00259 rmse    standard    1.10    25  0.0195 Preprocessor1_Model05
##  6 0.00329 rmse    standard    1.10    25  0.0196 Preprocessor1_Model06
##  7 0.00418 rmse    standard    1.09    25  0.0196 Preprocessor1_Model07
##  8 0.00530 rmse    standard    1.09    25  0.0196 Preprocessor1_Model08
##  9 0.00672 rmse    standard    1.09    25  0.0196 Preprocessor1_Model09
## 10 0.00853 rmse    standard    1.09    25  0.0197 Preprocessor1_Model10
## # ... with 20 more rows
…
#Create workflow for fitting model to test_data predictions
lasso_final_fit2 <- 
  lasso_final_wf2 %>%
  fit(test_data) 

Calculating residuals manually.

lasso_residuals2 <- lasso_final_fit2 %>%
  augment(test_data) %>% #use augment() to make predictions from train data
  select(c(.pred, avg_time_lap)) %>%
  mutate(.resid = avg_time_lap - .pred) #calculate residuals and make new row.

lasso_residuals2

## # A tibble: 64 x 3
##    .pred avg_time_lap  .resid
##    <dbl>        <dbl>   <dbl>
##  1  28.8         28.7 -0.120 
##  2  29.8         30.0  0.173 
##  3  29.8         30.1  0.273 
##  4  32.4         32.4  0.0827
##  5  33.0         32.8 -0.186 
##  6  33.0         33.5  0.514 
##  7  33.3         33.7  0.409 
##  8  31.9         30.4 -1.50  
##  9  32.8         31.0 -1.75  
## 10  32.5         31.6 -0.885 
## # ... with 54 more rows
…
