Tidy Tuesday Exercise 2
…
Tune Grid Specification: Decision Tree

#create a regular grid of values for using convenience functions for each hyperparameter.
tree_grid_dtree <-
  dials::grid_regular(
    cost_complexity(), 
    tree_depth(), 
    levels = 5)

tree_grid_dtree

## # A tibble: 25 x 2
##    cost_complexity tree_depth
##              <dbl>      <int>
##  1    0.0000000001          1
##  2    0.0000000178          1
##  3    0.00000316            1
##  4    0.000562              1
##  5    0.1                   1
##  6    0.0000000001          4
##  7    0.0000000178          4
##  8    0.00000316            4
##  9    0.000562              4
## 10    0.1                   4
## # ... with 15 more rows
…
Cross Validation with tunegrid(): Decision Tree

dtree_resample <- 
  dtree_wf %>% 
  tune_grid(
    resamples = fold,
    grid = tree_grid_dtree
    )

dtree_resample %>%
  collect_metrics()

## # A tibble: 50 x 8
##    cost_complexity tree_depth .metric .estimator  mean     n std_err .config    
##              <dbl>      <int> <chr>   <chr>      <dbl> <int>   <dbl> <chr>      
##  1    0.0000000001          1 rmse    standard   3.98     25  0.0607 Preprocess~
##  2    0.0000000001          1 rsq     standard   0.478    25  0.0117 Preprocess~
##  3    0.0000000178          1 rmse    standard   3.98     25  0.0607 Preprocess~
##  4    0.0000000178          1 rsq     standard   0.478    25  0.0117 Preprocess~
##  5    0.00000316            1 rmse    standard   3.98     25  0.0607 Preprocess~
##  6    0.00000316            1 rsq     standard   0.478    25  0.0117 Preprocess~
##  7    0.000562              1 rmse    standard   3.98     25  0.0607 Preprocess~
##  8    0.000562              1 rsq     standard   0.478    25  0.0117 Preprocess~
##  9    0.1                   1 rmse    standard   3.98     25  0.0607 Preprocess~
## 10    0.1                   1 rsq     standard   0.478    25  0.0117 Preprocess~
## # ... with 40 more rows
…
Calculating residuals and ploting Actual vs.Predicted values

Calculating residuals manually.

dtree_residuals <- dtree_final_fit %>%
  augment(train_data) %>% #use augment() to make predictions from train data
  select(c(.pred, avg_time_lap)) %>%
  mutate(.resid = avg_time_lap - .pred) #calculate residuals and make new row.

dtree_residuals

## # A tibble: 189 x 3
##    .pred avg_time_lap .resid
##    <dbl>        <dbl>  <dbl>
##  1  29.7         30.8  1.11 
##  2  23.8         24.2  0.377
##  3  32.5         33.7  1.19 
##  4  30.9         30.5 -0.405
##  5  25.6         26.2  0.591
##  6  30.9         30.8 -0.115
##  7  25.6         25.4 -0.229
##  8  27.2         24.0 -3.26 
##  9  30.0         29.8 -0.222
## 10  32.5         32.4 -0.108
## # ... with 179 more rows
…
lasso_grid <- tibble(penalty = 10^seq(-3, 0, length.out = 30))

Cross Validation with tune_grid(): LASSO

lasso_resample <- 
  lasso_wf %>%
  tune_grid(resamples = fold,
            grid = lasso_grid,
            control = control_grid(verbose = FALSE, save_pred = TRUE),
            metrics = metric_set(rmse))

lasso_resample %>%
  collect_metrics()

## # A tibble: 30 x 7
##    penalty .metric .estimator  mean     n std_err .config              
##      <dbl> <chr>   <chr>      <dbl> <int>   <dbl> <chr>                
##  1 0.001   rmse    standard    1.06    25  0.0283 Preprocessor1_Model01
##  2 0.00127 rmse    standard    1.06    25  0.0283 Preprocessor1_Model02
##  3 0.00161 rmse    standard    1.06    25  0.0283 Preprocessor1_Model03
##  4 0.00204 rmse    standard    1.06    25  0.0283 Preprocessor1_Model04
##  5 0.00259 rmse    standard    1.06    25  0.0282 Preprocessor1_Model05
##  6 0.00329 rmse    standard    1.06    25  0.0282 Preprocessor1_Model06
##  7 0.00418 rmse    standard    1.06    25  0.0281 Preprocessor1_Model07
##  8 0.00530 rmse    standard    1.06    25  0.0281 Preprocessor1_Model08
##  9 0.00672 rmse    standard    1.06    25  0.0282 Preprocessor1_Model09
## 10 0.00853 rmse    standard    1.06    25  0.0282 Preprocessor1_Model10
## # ... with 20 more rows
…
#Create workflow for fitting model to train_data2 predictions
lasso_final_fit <- 
  lasso_final_wf %>%
  fit(train_data) 

Calculating residuals manually.

lasso_residuals <- lasso_final_fit %>%
  augment(train_data) %>% #use augment() to make predictions from train data
  select(c(.pred, avg_time_lap)) %>%
  mutate(.resid = avg_time_lap - .pred) #calculate residuals and make new row.

lasso_residuals

## # A tibble: 189 x 3
##    .pred avg_time_lap .resid
##    <dbl>        <dbl>  <dbl>
##  1  30.2         30.8  0.641
##  2  24.0         24.2  0.160
##  3  33.0         33.7  0.702
##  4  30.6         30.5 -0.145
##  5  25.3         26.2  0.965
##  6  31.1         30.8 -0.360
##  7  25.3         25.4  0.145
##  8  27.4         24.0 -3.42 
##  9  30.8         29.8 -0.994
## 10  33.0         32.4 -0.598
## # ... with 179 more rows
…
Cross Validation with tune_grid(): Random Forest

rf_resample <- 
  rf_wf %>% 
  tune_grid(fold,
            grid = 25,
            control = control_grid(save_pred = TRUE),
            metrics = metric_set(rmse))

## i Creating pre-processing data to finalize unknown parameter: mtry

rf_resample %>%
  collect_metrics()

## # A tibble: 25 x 8
##     mtry min_n .metric .estimator  mean     n std_err .config              
##    <int> <int> <chr>   <chr>      <dbl> <int>   <dbl> <chr>                
##  1    39     4 rmse    standard   0.838    25  0.0336 Preprocessor1_Model01
##  2     8    17 rmse    standard   1.81     25  0.0463 Preprocessor1_Model02
##  3    22    15 rmse    standard   1.05     25  0.0321 Preprocessor1_Model03
##  4     2    13 rmse    standard   3.71     25  0.0673 Preprocessor1_Model04
##  5     5    32 rmse    standard   2.55     25  0.0625 Preprocessor1_Model05
##  6    12    40 rmse    standard   1.97     25  0.0559 Preprocessor1_Model06
##  7    37    25 rmse    standard   1.33     25  0.0351 Preprocessor1_Model07
##  8    52    13 rmse    standard   0.830    25  0.0293 Preprocessor1_Model08
##  9    49    35 rmse    standard   1.64     25  0.0386 Preprocessor1_Model09
## 10    10    10 rmse    standard   1.42     25  0.0403 Preprocessor1_Model10
## # ... with 15 more rows
…
#Create workflow for fitting model to train_data predictions
rf_final_fit <- 
  rf_final_wf %>%
  fit(train_data) 

Calculating residuals manually.

rf_residuals <- rf_final_fit %>%
  augment(train_data) %>% #use augment() to make predictions from train data
  select(c(.pred, avg_time_lap)) %>%
  mutate(.resid = avg_time_lap - .pred) #calculate residuals and make new row.

rf_residuals

## # A tibble: 189 x 3
##    .pred avg_time_lap .resid
##    <dbl>        <dbl>  <dbl>
##  1  29.9         30.8  0.900
##  2  23.8         24.2  0.355
##  3  32.6         33.7  1.13 
##  4  30.8         30.5 -0.388
##  5  25.8         26.2  0.447
##  6  30.9         30.8 -0.120
##  7  25.7         25.4 -0.255
##  8  25.9         24.0 -1.90 
##  9  30.0         29.8 -0.195
## 10  32.6         32.4 -0.161
## # ... with 179 more rows
…
#random forest
rf_resample2 <- 
  rf_wf %>% 
  tune_grid(fold,
            grid = 25,
            control = control_stack_grid(),
            metrics = metric_set(rmse))

## i Creating pre-processing data to finalize unknown parameter: mtry

rf_resample2 %>%
  collect_metrics()

## # A tibble: 25 x 8
##     mtry min_n .metric .estimator  mean     n std_err .config              
##    <int> <int> <chr>   <chr>      <dbl> <int>   <dbl> <chr>                
##  1    47    39 rmse    standard   1.78     25  0.0402 Preprocessor1_Model01
##  2    17    17 rmse    standard   1.25     25  0.0365 Preprocessor1_Model02
##  3    46     8 rmse    standard   0.821    25  0.0305 Preprocessor1_Model03
##  4    53    30 rmse    standard   1.52     25  0.0357 Preprocessor1_Model04
##  5    29    23 rmse    standard   1.30     25  0.0343 Preprocessor1_Model05
##  6    26    33 rmse    standard   1.55     25  0.0410 Preprocessor1_Model06
##  7    41    25 rmse    standard   1.31     25  0.0348 Preprocessor1_Model07
##  8    14     5 rmse    standard   1.09     25  0.0348 Preprocessor1_Model08
##  9    21     9 rmse    standard   0.914    25  0.0307 Preprocessor1_Model09
## 10    10    36 rmse    standard   1.99     25  0.0551 Preprocessor1_Model10
## # ... with 15 more rows

#LASSO
lasso_resample2 <- 
  lasso_wf %>%
  tune_grid(resamples = fold,
            grid = lasso_grid,
            control = control_stack_grid(),
            metrics = metric_set(rmse))

lasso_resample2 %>%
  collect_metrics()

## # A tibble: 30 x 7
##    penalty .metric .estimator  mean     n std_err .config              
##      <dbl> <chr>   <chr>      <dbl> <int>   <dbl> <chr>                
##  1 0.001   rmse    standard    1.06    25  0.0283 Preprocessor1_Model01
##  2 0.00127 rmse    standard    1.06    25  0.0283 Preprocessor1_Model02
##  3 0.00161 rmse    standard    1.06    25  0.0283 Preprocessor1_Model03
##  4 0.00204 rmse    standard    1.06    25  0.0283 Preprocessor1_Model04
##  5 0.00259 rmse    standard    1.06    25  0.0282 Preprocessor1_Model05
##  6 0.00329 rmse    standard    1.06    25  0.0282 Preprocessor1_Model06
##  7 0.00418 rmse    standard    1.06    25  0.0281 Preprocessor1_Model07
##  8 0.00530 rmse    standard    1.06    25  0.0281 Preprocessor1_Model08
##  9 0.00672 rmse    standard    1.06    25  0.0282 Preprocessor1_Model09
## 10 0.00853 rmse    standard    1.06    25  0.0282 Preprocessor1_Model10
## # ... with 20 more rows
…
## 
## The 2 highest weighted members are:

## # A tibble: 2 x 3
##   member               type        weight
##   <chr>                <chr>        <dbl>
## 1 rf_resample2_1_03    rand_forest  0.871
## 2 lasso_resample2_1_01 linear_reg   0.130

#using collect_parameters function to see which individual model was used to assign which stacking coefficient.
collect_parameters(ensemble_mod, "lasso_resample2")

## # A tibble: 30 x 3
##    member               penalty  coef
##    <chr>                  <dbl> <dbl>
##  1 lasso_resample2_1_01 0.001   0.130
##  2 lasso_resample2_1_02 0.00127 0    
##  3 lasso_resample2_1_03 0.00161 0    
##  4 lasso_resample2_1_04 0.00204 0    
##  5 lasso_resample2_1_05 0.00259 0    
##  6 lasso_resample2_1_06 0.00329 0    
##  7 lasso_resample2_1_07 0.00418 0    
##  8 lasso_resample2_1_08 0.00530 0    
##  9 lasso_resample2_1_09 0.00672 0    
## 10 lasso_resample2_1_10 0.00853 0    
## # ... with 20 more rows

collect_parameters(ensemble_mod, "rf_resample2")

## # A tibble: 25 x 4
##    member             mtry min_n  coef
##    <chr>             <int> <int> <dbl>
##  1 rf_resample2_1_01    47    39 0    
##  2 rf_resample2_1_02    17    17 0    
##  3 rf_resample2_1_03    46     8 0.871
##  4 rf_resample2_1_04    53    30 0    
##  5 rf_resample2_1_05    29    23 0    
##  6 rf_resample2_1_06    26    33 0    
##  7 rf_resample2_1_07    41    25 0    
##  8 rf_resample2_1_08    14     5 0    
##  9 rf_resample2_1_09    21     9 0    
## 10 rf_resample2_1_10    10    36 0    
## # ... with 15 more rows
…
lasso_grid <- tibble(penalty = 10^seq(-3, 0, length.out = 30))

Cross Validation with tune_grid(): LASSO

lasso_resample2 <- 
  lasso_wf2 %>%
  tune_grid(resamples = fold,
            grid = lasso_grid,
            control = control_grid(verbose = FALSE, save_pred = TRUE),
            metrics = metric_set(rmse))

lasso_resample2 %>%
  collect_metrics()

## # A tibble: 30 x 7
##    penalty .metric .estimator  mean     n std_err .config              
##      <dbl> <chr>   <chr>      <dbl> <int>   <dbl> <chr>                
##  1 0.001   rmse    standard    1.06    25  0.0283 Preprocessor1_Model01
##  2 0.00127 rmse    standard    1.06    25  0.0283 Preprocessor1_Model02
##  3 0.00161 rmse    standard    1.06    25  0.0283 Preprocessor1_Model03
##  4 0.00204 rmse    standard    1.06    25  0.0283 Preprocessor1_Model04
##  5 0.00259 rmse    standard    1.06    25  0.0282 Preprocessor1_Model05
##  6 0.00329 rmse    standard    1.06    25  0.0282 Preprocessor1_Model06
##  7 0.00418 rmse    standard    1.06    25  0.0281 Preprocessor1_Model07
##  8 0.00530 rmse    standard    1.06    25  0.0281 Preprocessor1_Model08
##  9 0.00672 rmse    standard    1.06    25  0.0282 Preprocessor1_Model09
## 10 0.00853 rmse    standard    1.06    25  0.0282 Preprocessor1_Model10
## # ... with 20 more rows
…
#Create workflow for fitting model to test_data predictions
lasso_final_fit2 <- 
  lasso_final_wf2 %>%
  fit(test_data) 

Calculating residuals manually.

lasso_residuals2 <- lasso_final_fit2 %>%
  augment(test_data) %>% #use augment() to make predictions from train data
  select(c(.pred, avg_time_lap)) %>%
  mutate(.resid = avg_time_lap - .pred) #calculate residuals and make new row.

lasso_residuals2

## # A tibble: 64 x 3
##    .pred avg_time_lap  .resid
##    <dbl>        <dbl>   <dbl>
##  1  29.3         28.7 -0.608 
##  2  29.5         29.0 -0.543 
##  3  29.5         29.5  0.0374
##  4  29.5         30.0  0.477 
##  5  29.5         30.1  0.566 
##  6  33.1         32.8 -0.232 
##  7  33.0         33.4  0.395 
##  8  33.2         33.4  0.211 
##  9  33.5         33.5  0.0188
## 10  33.3         33.7  0.384 
## # ... with 54 more rows
…
